Library\Bee\artifacts\mvdfrm\Unity.Timeline.ref.dll_621CDDF9C514DF8F.mvfrm
Library\Bee\artifacts\mvdfrm\UnityEditor.TestRunner.ref.dll_193EC4CE382CBFB3.mvfrm
Library\Bee\artifacts\mvdfrm\UnityEditor.UI.ref.dll_4C98D3F7040CD4F5.mvfrm
Library\Bee\artifacts\mvdfrm\UnityEngine.TestRunner.ref.dll_E55D0F7C63F01D9E.mvfrm
Library\Bee\artifacts\mvdfrm\UnityEngine.UI.ref.dll_08FEAA520A2EFD60.mvfrm
Library\Bee\artifacts\mvdfrm\Unity.Plastic.Antlr3.Runtime.dll_FA8B5BFB9B6D1972.mvfrm
Library\Bee\artifacts\mvdfrm\Unity.Plastic.Newtonsoft.Json.dll_F496C45DCF31EBA3.mvfrm
Library\Bee\artifacts\mvdfrm\Unity.VisualScripting.IonicZip.dll_77483D99A6A97C1F.mvfrm
Library\Bee\artifacts\mvdfrm\Unity.VisualScripting.YamlDotNet.dll_8E41072A43CB1F0D.mvfrm
Library\Bee\artifacts\mvdfrm\Unity.VisualScripting.TextureAssets.dll_255F307E04987D05.mvfrm
Library\Bee\artifacts\mvdfrm\Unity.VisualScripting.Antlr3.Runtime.dll_3FAE2E0B74942F2C.mvfrm
Library\Bee\artifacts\mvdfrm\UnityEditor.Graphs.dll_C08DECE7BBB198F9.mvfrm
Library\Bee\artifacts\mvdfrm\UnityEditor.CoreModule.dll_CADF3A9D375995C7.mvfrm
Library\Bee\artifacts\mvdfrm\UnityEditor.DeviceSimulatorModule.dll_034E5EEF72D673AA.mvfrm
Library\Bee\artifacts\mvdfrm\UnityEditor.DiagnosticsModule.dll_6879D4FDCEAAAB78.mvfrm
Library\Bee\artifacts\mvdfrm\UnityEditor.dll_64F551005245891E.mvfrm
Library\Bee\artifacts\mvdfrm\UnityEditor.GraphViewModule.dll_B0CD5F650757104F.mvfrm
Library\Bee\artifacts\mvdfrm\UnityEditor.PackageManagerUIModule.dll_E397DD192C454063.mvfrm
Library\Bee\artifacts\mvdfrm\UnityEditor.PresetsUIModule.dll_6C33984709AF6854.mvfrm
Library\Bee\artifacts\mvdfrm\UnityEditor.QuickSearchModule.dll_F389560B2781A7D1.mvfrm
Library\Bee\artifacts\mvdfrm\UnityEditor.SceneTemplateModule.dll_62C7E348EAAA7A72.mvfrm
Library\Bee\artifacts\mvdfrm\UnityEditor.TextCoreFontEngineModule.dll_227975BBBB551B65.mvfrm
Library\Bee\artifacts\mvdfrm\UnityEditor.TextCoreTextEngineModule.dll_6A61AC2D4AD8D483.mvfrm
Library\Bee\artifacts\mvdfrm\UnityEditor.UIBuilderModule.dll_05560C817A0F8983.mvfrm
Library\Bee\artifacts\mvdfrm\UnityEditor.UIElementsModule.dll_224312635A8AE5A3.mvfrm
Library\Bee\artifacts\mvdfrm\UnityEditor.UIElementsSamplesModule.dll_B79D8FF4FDCA06FA.mvfrm
Library\Bee\artifacts\mvdfrm\UnityEditor.UIServiceModule.dll_3E481DE46346D99D.mvfrm
Library\Bee\artifacts\mvdfrm\UnityEditor.UnityConnectModule.dll_5D9C68817FFA27FD.mvfrm
Library\Bee\artifacts\mvdfrm\UnityEngine.AccessibilityModule.dll_956D4EDFEB20A20F.mvfrm
Library\Bee\artifacts\mvdfrm\UnityEngine.AIModule.dll_A7FD5AD9EB95F13B.mvfrm
Library\Bee\artifacts\mvdfrm\UnityEngine.AndroidJNIModule.dll_A08BFB36A3AA5479.mvfrm
Library\Bee\artifacts\mvdfrm\UnityEngine.AnimationModule.dll_7F52DB8DE1B3E4F5.mvfrm
Library\Bee\artifacts\mvdfrm\UnityEngine.ARModule.dll_61701FDD48B35004.mvfrm
Library\Bee\artifacts\mvdfrm\UnityEngine.AssetBundleModule.dll_377288FC89E85CC3.mvfrm
Library\Bee\artifacts\mvdfrm\UnityEngine.AudioModule.dll_7CED7A2BB18F80A7.mvfrm
Library\Bee\artifacts\mvdfrm\UnityEngine.ClothModule.dll_E3D5D7268BAC5F8B.mvfrm
Library\Bee\artifacts\mvdfrm\UnityEngine.ClusterInputModule.dll_DD38DD973181FAC3.mvfrm
Library\Bee\artifacts\mvdfrm\UnityEngine.ClusterRendererModule.dll_08FB2160E291812E.mvfrm
Library\Bee\artifacts\mvdfrm\UnityEngine.CoreModule.dll_EE000DEFDF5F00F2.mvfrm
Library\Bee\artifacts\mvdfrm\UnityEngine.CrashReportingModule.dll_F7F587DA05E69FCA.mvfrm
Library\Bee\artifacts\mvdfrm\UnityEngine.DirectorModule.dll_FA17BF0F489CFB8F.mvfrm
Library\Bee\artifacts\mvdfrm\UnityEngine.dll_979997D8B0B91603.mvfrm
Library\Bee\artifacts\mvdfrm\UnityEngine.DSPGraphModule.dll_FF692078BAFDCCB0.mvfrm
Library\Bee\artifacts\mvdfrm\UnityEngine.GameCenterModule.dll_CAD9455169EB456A.mvfrm
Library\Bee\artifacts\mvdfrm\UnityEngine.GIModule.dll_4039A3E78744D955.mvfrm
Library\Bee\artifacts\mvdfrm\UnityEngine.GridModule.dll_CB7129DDF7B396E9.mvfrm
Library\Bee\artifacts\mvdfrm\UnityEngine.HotReloadModule.dll_009B9993BCE70077.mvfrm
Library\Bee\artifacts\mvdfrm\UnityEngine.ImageConversionModule.dll_74ED1F1164B63922.mvfrm
Library\Bee\artifacts\mvdfrm\UnityEngine.IMGUIModule.dll_B54D199277C11488.mvfrm
Library\Bee\artifacts\mvdfrm\UnityEngine.InputLegacyModule.dll_C8B7A41B21DA12B4.mvfrm
Library\Bee\artifacts\mvdfrm\UnityEngine.InputModule.dll_E36341DC27C7A54B.mvfrm
Library\Bee\artifacts\mvdfrm\UnityEngine.JSONSerializeModule.dll_F584D81BEA5C0299.mvfrm
Library\Bee\artifacts\mvdfrm\UnityEngine.LocalizationModule.dll_1B85A7E9C8FDEDBC.mvfrm
Library\Bee\artifacts\mvdfrm\UnityEngine.NVIDIAModule.dll_CC75316B94A3A79E.mvfrm
Library\Bee\artifacts\mvdfrm\UnityEngine.ParticleSystemModule.dll_4B07D12673F82B58.mvfrm
Library\Bee\artifacts\mvdfrm\UnityEngine.PerformanceReportingModule.dll_62DFBD766B3007B1.mvfrm
Library\Bee\artifacts\mvdfrm\UnityEngine.Physics2DModule.dll_CBF8CB7E82B0DC8A.mvfrm
Library\Bee\artifacts\mvdfrm\UnityEngine.PhysicsModule.dll_EE39AF3B5985D658.mvfrm
Library\Bee\artifacts\mvdfrm\UnityEngine.ProfilerModule.dll_2C5DF845E1F6829C.mvfrm
Library\Bee\artifacts\mvdfrm\UnityEngine.RuntimeInitializeOnLoadManagerInitializerModule.dll_5A09C337B1A66153.mvfrm
Library\Bee\artifacts\mvdfrm\UnityEngine.ScreenCaptureModule.dll_0F6C85A0FEC82EFB.mvfrm
Library\Bee\artifacts\mvdfrm\UnityEngine.SharedInternalsModule.dll_F8FE5DE6DBE43472.mvfrm
Library\Bee\artifacts\mvdfrm\UnityEngine.SpriteMaskModule.dll_B405B7E18B5ADAE4.mvfrm
Library\Bee\artifacts\mvdfrm\UnityEngine.SpriteShapeModule.dll_50D3B6573F8A94CD.mvfrm
Library\Bee\artifacts\mvdfrm\UnityEngine.StreamingModule.dll_33E7C8DE313B9C33.mvfrm
Library\Bee\artifacts\mvdfrm\UnityEngine.SubstanceModule.dll_1092DD277C8E9A41.mvfrm
Library\Bee\artifacts\mvdfrm\UnityEngine.SubsystemsModule.dll_1EB31E4359A2C2F7.mvfrm
Library\Bee\artifacts\mvdfrm\UnityEngine.TerrainModule.dll_08802AAA2F441F46.mvfrm
Library\Bee\artifacts\mvdfrm\UnityEngine.TerrainPhysicsModule.dll_4B8279F98D3B25E5.mvfrm
Library\Bee\artifacts\mvdfrm\UnityEngine.TextCoreFontEngineModule.dll_A0D8F10ECE52DA30.mvfrm
Library\Bee\artifacts\mvdfrm\UnityEngine.TextCoreTextEngineModule.dll_E8C127805DD6934E.mvfrm
Library\Bee\artifacts\mvdfrm\UnityEngine.TextRenderingModule.dll_38ABF7ABB5FFAEF0.mvfrm
Library\Bee\artifacts\mvdfrm\UnityEngine.TilemapModule.dll_A77C922B4701004F.mvfrm
Library\Bee\artifacts\mvdfrm\UnityEngine.TLSModule.dll_62590B1F74FED12C.mvfrm
Library\Bee\artifacts\mvdfrm\UnityEngine.UIElementsModule.dll_22F17FAB5CCEFEEE.mvfrm
Library\Bee\artifacts\mvdfrm\UnityEngine.UIElementsNativeModule.dll_2E1191AE9DBDB085.mvfrm
Library\Bee\artifacts\mvdfrm\UnityEngine.UIModule.dll_A370F90747DCF6E7.mvfrm
Library\Bee\artifacts\mvdfrm\UnityEngine.UmbraModule.dll_F7C226443EB62C1A.mvfrm
Library\Bee\artifacts\mvdfrm\UnityEngine.UNETModule.dll_80A655D92C6DF66B.mvfrm
Library\Bee\artifacts\mvdfrm\UnityEngine.UnityAnalyticsModule.dll_6AA741F0201F7D54.mvfrm
Library\Bee\artifacts\mvdfrm\UnityEngine.UnityConnectModule.dll_4AFBEC907A8228A8.mvfrm
Library\Bee\artifacts\mvdfrm\UnityEngine.UnityCurlModule.dll_B26F7CBF51C7D6E2.mvfrm
Library\Bee\artifacts\mvdfrm\UnityEngine.UnityTestProtocolModule.dll_736045E757C55C50.mvfrm
Library\Bee\artifacts\mvdfrm\UnityEngine.UnityWebRequestAssetBundleModule.dll_66A4D92351717F25.mvfrm
Library\Bee\artifacts\mvdfrm\UnityEngine.UnityWebRequestAudioModule.dll_DADC1154F19AD249.mvfrm
Library\Bee\artifacts\mvdfrm\UnityEngine.UnityWebRequestModule.dll_868C26BB6FAAD3A1.mvfrm
Library\Bee\artifacts\mvdfrm\UnityEngine.UnityWebRequestTextureModule.dll_106E3395970F7B3E.mvfrm
Library\Bee\artifacts\mvdfrm\UnityEngine.UnityWebRequestWWWModule.dll_B3836CDC4D964FBA.mvfrm
Library\Bee\artifacts\mvdfrm\UnityEngine.VehiclesModule.dll_71DAB88EC2C6CB2A.mvfrm
Library\Bee\artifacts\mvdfrm\UnityEngine.VFXModule.dll_E337A38E4B6C3A99.mvfrm
Library\Bee\artifacts\mvdfrm\UnityEngine.VideoModule.dll_A1F6FE9674219C4C.mvfrm
Library\Bee\artifacts\mvdfrm\UnityEngine.VirtualTexturingModule.dll_529E461D766C3110.mvfrm
Library\Bee\artifacts\mvdfrm\UnityEngine.VRModule.dll_F6431F8CE9977C5F.mvfrm
Library\Bee\artifacts\mvdfrm\UnityEngine.WindModule.dll_644EE91870957F5B.mvfrm
Library\Bee\artifacts\mvdfrm\UnityEngine.XRModule.dll_2901E29172D1C9BD.mvfrm
Library\Bee\artifacts\mvdfrm\Unity.Android.Gradle.dll_F2F9A65988E5C32F.mvfrm
Library\Bee\artifacts\mvdfrm\Unity.Android.Types.dll_622D617879BDC07D.mvfrm
Library\Bee\artifacts\mvdfrm\UnityEditor.Android.Extensions.dll_3AE2262592BBC2CF.mvfrm
Library\Bee\artifacts\mvdfrm\UnityEditor.UWP.Extensions.dll_4AD3F84A4350DE54.mvfrm
Library\Bee\artifacts\mvdfrm\UnityEditor.WebGL.Extensions.dll_FD290F5486AA16D9.mvfrm
Library\Bee\artifacts\mvdfrm\UnityEditor.WindowsStandalone.Extensions.dll_2BB268671A544749.mvfrm